titolo,link,data
47K ru MAIL/PASS @ZyrexGod,https://hackingfather.com//threads/47k-ru-mail-pass-zyrexgod.2968/,Tuesday at 7:16 PM
[EXCLUSIVE] forummikrotik.com [2021-11-12] [61818 Lines],https://hackingfather.com//threads/exclusive-forummikrotik-com-2021-11-12-61818-lines.2954/,Saturday at 6:08 PM
"hh-cologne.de [2018-12-06] [45,061 lines]",https://hackingfather.com//threads/hh-cologne-de-2018-12-06-45-061-lines.2945/,"May 10, 2022"
bestroofernyc.com [2021-11-01] [178535 Lines],https://hackingfather.com//threads/bestroofernyc-com-2021-11-01-178535-lines.2929/,"May 4, 2022"
93K ITALY COMBOLIST,https://hackingfather.com//threads/93k-italy-combolist.2907/,"Apr 28, 2022"
[Exclusive] ycantho.com [2021-11-05] [988616 Lines],https://hackingfather.com//threads/exclusive-ycantho-com-2021-11-05-988616-lines.2888/,"Apr 26, 2022"
Selling VHQ Crypto Leads Base,https://hackingfather.com//threads/selling-vhq-crypto-leads-base.2884/,"Apr 26, 2022"
50k Telegram chats 10GB Database leaked,https://hackingfather.com//threads/50k-telegram-chats-10gb-database-leaked.2883/,"Apr 26, 2022"
"zomato.com [2017-11-05] [5,104,292 lines]",https://hackingfather.com//threads/zomato-com-2017-11-05-5-104-292-lines.2871/,"Apr 25, 2022"
[3.980.443] Canva.com Database,https://hackingfather.com//threads/3-980-443-canva-com-database.2870/,"Apr 25, 2022"
Spain 100k whatsapp db,https://hackingfather.com//threads/spain-100k-whatsapp-db.2869/,"Apr 25, 2022"
BINANCE LEAKED ID'S/PASSPORTS (2018-2019),https://hackingfather.com//threads/binance-leaked-ids-passports-2018-2019.2868/,"Apr 25, 2022"
[Leaked] Crackingitaly.co Database Hashed,https://hackingfather.com//threads/leaked-crackingitaly-co-database-hashed.2867/,"Apr 25, 2022"
INDIA 50 CRORE DATABASE 2018 + FOREIGNERS BONUS ( + 1 GB ) XLS-XLSX,https://hackingfather.com//threads/india-50-crore-database-2018-foreigners-bonus-1-gb-xls-xlsx.2866/,"Apr 25, 2022"
REUP | Shein Database Dump | 30M,https://hackingfather.com//threads/reup-shein-database-dump-30m.2865/,"Apr 25, 2022"
MORE INDIAN DBS SELLER LEAKS : PANCARD - ONLINE SELLERS - CITIZENS - STOCK TRADERS,https://hackingfather.com//threads/more-indian-dbs-seller-leaks-pancard-online-sellers-citizens-stock-traders.2864/,"Apr 25, 2022"
VIP Collection 45GB DataPack - Massive Database Collection,https://hackingfather.com//threads/vip-collection-45gb-datapack-massive-database-collection.2863/,"Apr 25, 2022"
PORNHUB DATABASE,https://hackingfather.com//threads/pornhub-database.2862/,"Apr 25, 2022"
CENTRAL BANK OF RUSSIA DATADASE,https://hackingfather.com//threads/central-bank-of-russia-datadase.2861/,"Apr 25, 2022"
SAUDI ARABIA MILITARY AND GOVERNMENT INTERNAL DOCUMENTS LEAK 001,https://hackingfather.com//threads/saudi-arabia-military-and-government-internal-documents-leak-001.2860/,"Apr 25, 2022"
BANGKOK AIRWAYS DATABASE,https://hackingfather.com//threads/bangkok-airways-database.2849/,"Apr 24, 2022"
40 MILLION INDIAN FEMALES DATABASE,https://hackingfather.com//threads/40-million-indian-females-database.2848/,"Apr 24, 2022"
1 MILLION UK CONSUMER DATABASE,https://hackingfather.com//threads/1-million-uk-consumer-database.2847/,"Apr 24, 2022"
PROTEMPS.COM SINGAPORE,https://hackingfather.com//threads/protemps-com-singapore.2846/,"Apr 24, 2022"
5660 logs with crypto install,https://hackingfather.com//threads/5660-logs-with-crypto-install.2842/,"Apr 24, 2022"
"Leak ~ Redline Base Passwords and Cookies (Paypal,Amazon,Blockchain,Netflix,Etc..)✨∞",https://hackingfather.com//threads/leak-redline-base-passwords-and-cookies-paypal-amazon-blockchain-netflix-etc.2841/,"Apr 24, 2022"
LARGE DATABASES ⚡️TRUECALLER DATA - PAN INDIA 2019 FULL CITIES⚡️+1 GB,https://hackingfather.com//threads/large-databases-truecaller-data-pan-india-2019-full-cities-1-gb.2840/,"Apr 24, 2022"
"jardinerie-lardon.fr [2020-07-22] [56,064 lines]",https://hackingfather.com//threads/jardinerie-lardon-fr-2020-07-22-56-064-lines.2839/,"Apr 24, 2022"
OGUSERS.COM DATABASE LEAK BY CHINESE & DISCOLI + FORMATTED DB DOWNLOAD,https://hackingfather.com//threads/ogusers-com-database-leak-by-chinese-discoli-formatted-db-download.2838/,"Apr 24, 2022"
Leak 11000 logs Jan-Mar 2022 3.4gb data,https://hackingfather.com//threads/leak-11000-logs-jan-mar-2022-3-4gb-data.2837/,"Apr 24, 2022"
STEALER LOGS 19.16 GB,https://hackingfather.com//threads/stealer-logs-19-16-gb.2836/,"Apr 24, 2022"
USA VOTERS DATABASE FLORIDA,https://hackingfather.com//threads/usa-voters-database-florida.2834/,"Apr 24, 2022"
IRAQ CITIZEN DATABASE,https://hackingfather.com//threads/iraq-citizen-database.2833/,"Apr 24, 2022"
ECNOCOMM INTERNET AND TELEPHONY CORPORATION MEXICO LEAK,https://hackingfather.com//threads/ecnocomm-internet-and-telephony-corporation-mexico-leak.2832/,"Apr 24, 2022"
NETHERLANDS 5.5M DATABASE OF USERS LEAKED,https://hackingfather.com//threads/netherlands-5-5m-database-of-users-leaked.2831/,"Apr 24, 2022"
POLICE INDONESIA (POLRI) FULL DATABASE,https://hackingfather.com//threads/police-indonesia-polri-full-database.2830/,"Apr 24, 2022"
need pakistani military data,https://hackingfather.com//threads/need-pakistani-military-data.2772/,"Apr 7, 2022"
Ministry of Health of the People's Republic of China breached.,https://hackingfather.com//threads/ministry-of-health-of-the-peoples-republic-of-china-breached.2769/,"Apr 5, 2022"
Nividea leaked database 2021-2022,https://hackingfather.com//threads/nividea-leaked-database-2021-2022.2694/,"Mar 16, 2022"
Samsung source code leaked,https://hackingfather.com//threads/samsung-source-code-leaked.2691/,"Mar 15, 2022"
FINAL ORIFLAME FULL LEAK 4TB INCLUDING ALL COUNTRY,https://hackingfather.com//threads/final-oriflame-full-leak-4tb-including-all-country.2675/,"Mar 13, 2022"
ORIFLAME CHINA 426074 PASSPORTS LEAKED,https://hackingfather.com//threads/oriflame-china-426074-passports-leaked.2674/,"Mar 13, 2022"
1400 DATABASES (2001 - 2018) | 77 GB (TORRENT),https://hackingfather.com//threads/1400-databases-2001-2018-77-gb-torrent.2673/,"Mar 13, 2022"
500 US LOGS | REDLINE STEALER LOGS,https://hackingfather.com//threads/500-us-logs-redline-stealer-logs.2672/,"Mar 13, 2022"
China Loan Information Database 80K,https://hackingfather.com//threads/china-loan-information-database-80k.2671/,"Mar 13, 2022"
⚡️⚡️ ISRAEL DATABASE ⚡️⚡️,https://hackingfather.com//threads/israel-database.2670/,"Mar 13, 2022"
CANVA.COM DATABASE LEAK 155k,https://hackingfather.com//threads/canva-com-database-leak-155k.2667/,"Mar 12, 2022"
30K COUPLE.UK DATABASE LEAKED,https://hackingfather.com//threads/30k-couple-uk-database-leaked.2654/,"Mar 11, 2022"
500K STOCKX DATABASE LEAK,https://hackingfather.com//threads/500k-stockx-database-leak.2653/,"Mar 11, 2022"
Epic Games May 2021 Database Leak x 83k,https://hackingfather.com//threads/epic-games-may-2021-database-leak-x-83k.2652/,"Mar 11, 2022"
"Multi-Country Government Defense Contracts | 7,950,264",https://hackingfather.com//threads/multi-country-government-defense-contracts-7-950-264.2651/,"Mar 11, 2022"
Jamaica Federal Police,https://hackingfather.com//threads/jamaica-federal-police.2650/,"Mar 11, 2022"
BLACKHATWORLD.COM Database 784k Lines,https://hackingfather.com//threads/blackhatworld-com-database-784k-lines.2649/,"Mar 11, 2022"
"650k Forex Leads from Italy (Tier1,Emails,Phones,Ips,Infos)",https://hackingfather.com//threads/650k-forex-leads-from-italy-tier1-emails-phones-ips-infos.2648/,"Mar 11, 2022"
Russian Database Leak 1.32 GB | Mega.nz,https://hackingfather.com//threads/russian-database-leak-1-32-gb-mega-nz.2647/,"Mar 10, 2022"
Leaked MemeChat User - 5.5 M | 2021-2022,https://hackingfather.com//threads/leaked-memechat-user-5-5-m-2021-2022.2646/,"Mar 10, 2022"
"Zomato Database - Leaked, Download",https://hackingfather.com//threads/zomato-database-leaked-download.2562/,"Dec 19, 2021"
[163 MB] Snapchat SQL Database,https://hackingfather.com//threads/163-mb-snapchat-sql-database.2560/,"Dec 19, 2021"
7 MILLOON INDIAN CAR OWNER DATABASE,https://hackingfather.com//threads/7-milloon-indian-car-owner-database.2552/,"Dec 9, 2021"
GoDaddy Data Breach November 2021,https://hackingfather.com//threads/godaddy-data-breach-november-2021.2549/,"Dec 8, 2021"
Instagram Scraped Database - 2021,https://hackingfather.com//threads/instagram-scraped-database-2021.2544/,"Nov 21, 2021"
Israel Military Personnel ( Database,https://hackingfather.com//threads/israel-military-personnel-database.2543/,"Nov 21, 2021"
Acer Breached by Desorden version,https://hackingfather.com//threads/acer-breached-by-desorden-version.2498/,"Oct 14, 2021"
SocialEngineForum.com Database - 25k + users and all active,https://hackingfather.com//threads/socialengineforum-com-database-25k-users-and-all-active.2495/,"Oct 11, 2021"
INDIAN JOBS DATABASE,https://hackingfather.com//threads/indian-jobs-database.2481/,"Oct 5, 2021"
ORIFLAME FULL LEAK 4TB  ALL COUNTRY,https://hackingfather.com//threads/oriflame-full-leak-4tb-all-country.2280/,"Sep 5, 2021"
LinkedIn Full Database Breach 2021,https://hackingfather.com//threads/linkedin-full-database-breach-2021.2181/,"Aug 22, 2021"
IndiaMart ( Db ),https://hackingfather.com//threads/indiamart-db.2167/,"Aug 20, 2021"
MegaCab India Mobile App Dump.,https://hackingfather.com//threads/megacab-india-mobile-app-dump.2152/,"Aug 18, 2021"
BMW LEAKED 60k Users Data,https://hackingfather.com//threads/bmw-leaked-60k-users-data.1966/,"Jul 13, 2021"
India Jammu Kashmir people data ( 224k + ),https://hackingfather.com//threads/india-jammu-kashmir-people-data-224k.1937/,"Jul 10, 2021"
"1,407,503 LINE DATABASE | EMAIL-PASS FORMATTED",https://hackingfather.com//threads/1-407-503-line-database-email-pass-formatted.1885/,"Jul 5, 2021"
Linkedin 2021 Dump - 4.5GB | Zip + Txt format,https://hackingfather.com//threads/linkedin-2021-dump-4-5gb-zip-txt-format.1855/,"Jul 3, 2021"
New Linkedin 2021 - 700Million records,https://hackingfather.com//threads/new-linkedin-2021-700million-records.1818/,"Jun 28, 2021"
Udemy Database Leaked,https://hackingfather.com//threads/udemy-database-leaked.1799/,"Jun 27, 2021"
Indian States Mobile / Email Database [PRIVATE],https://hackingfather.com//threads/indian-states-mobile-email-database-private.1705/,"Jun 16, 2021"
"amey.co.uk | Contains ID's, and thousands of confidential material",https://hackingfather.com//threads/amey-co-uk-contains-ids-and-thousands-of-confidential-material.1628/,"Jun 7, 2021"
670 databases breached from January to April 2021,https://hackingfather.com//threads/670-databases-breached-from-january-to-april-2021.1614/,"Jun 5, 2021"
[DUMP] 10K Indian Users,https://hackingfather.com//threads/dump-10k-indian-users.1612/,"Jun 5, 2021"
"Databases Collection Unhashed +200 CHEGG.COM, 000WEBHOST, SHEIN",https://hackingfather.com//threads/databases-collection-unhashed-200-chegg-com-000webhost-shein.1604/,"Jun 3, 2021"
Covid19 Indian database leaked,https://hackingfather.com//threads/covid19-indian-database-leaked.1513/,"May 28, 2021"
Whois Database Feb 2021 | 800k,https://hackingfather.com//threads/whois-database-feb-2021-800k.1490/,"May 25, 2021"
PARKMOBILE.IO DATABASE LEAKED,https://hackingfather.com//threads/parkmobile-io-database-leaked.1480/,"May 23, 2021"
MILLIONS OF PASSWORD | HAVEIBEENPAWNED LEAKED 2021,https://hackingfather.com//threads/millions-of-password-haveibeenpawned-leaked-2021.1412/,"May 16, 2021"
"70+ Private,Government,Academe Dumped Databasess",https://hackingfather.com//threads/70-private-government-academe-dumped-databasess.1398/,"May 14, 2021"
BINANCE USERS KYC DATA LEAKED 2021,https://hackingfather.com//threads/binance-users-kyc-data-leaked-2021.1377/,"May 13, 2021"
[3gb] PATREON DATABASE 2020-2021 Leaked,https://hackingfather.com//threads/3gb-patreon-database-2020-2021-leaked.1333/,"May 9, 2021"
IMGmodels.com Database LEAKED 2021,https://hackingfather.com//threads/imgmodels-com-database-leaked-2021.1270/,"May 4, 2021"
3.2 Million Turkey Data | 2021,https://hackingfather.com//threads/3-2-million-turkey-data-2021.1267/,"May 4, 2021"
Dubsmash.com 22 Million dehashed users Database LEAKED | 2021,https://hackingfather.com//threads/dubsmash-com-22-million-dehashed-users-database-leaked-2021.1234/,"May 2, 2021"
EXODUS.COM CRYPTO WALLET  DB  | LEAKED 20APR 2021,https://hackingfather.com//threads/exodus-com-crypto-wallet-db-leaked-20apr-2021.1186/,"Apr 29, 2021"
bigbasket database,https://hackingfather.com//threads/bigbasket-database.1155/,"Apr 27, 2021"
SKTORRENT.EU DATABASE EMAIL LEAKED,https://hackingfather.com//threads/sktorrent-eu-database-email-leaked.1147/,"Apr 27, 2021"
LEAKED ALL REQUIRED ID PASSPORTS - IN ONE LINK | 2021,https://hackingfather.com//threads/leaked-all-required-id-passports-in-one-link-2021.1071/,"Apr 22, 2021"
Aptoide.com Database Leaked April 2020 - Free Download,https://hackingfather.com//threads/aptoide-com-database-leaked-april-2020-free-download.1056/,"Apr 21, 2021"
savita bhabhi hot story,https://hackingfather.com//threads/savita-bhabhi-hot-story.969/,"Apr 20, 2021"
Personal data of 533 million Facebook users (better compression and better host),https://hackingfather.com//threads/personal-data-of-533-million-facebook-users-better-compression-and-better-host.929/,"Apr 15, 2021"
UPSTOX DATABASE BREACHED 2021 [LEAKED],https://hackingfather.com//threads/upstox-database-breached-2021-leaked.928/,"Apr 14, 2021"
CLUBHOUSE LEAK - MORE THAN 1.3 MILLION CLUBHOUSE USER INFO,https://hackingfather.com//threads/clubhouse-leak-more-than-1-3-million-clubhouse-user-info.907/,"Apr 12, 2021"
HQ 20000 FBI(FEDS) INFORMATION DUMPS[LEAKED],https://hackingfather.com//threads/hq-20000-fbi-feds-information-dumps-leaked.879/,"Apr 11, 2021"
⚡ GEORGIAN FAT DATABASE ✨,https://hackingfather.com//threads/georgian-fat-database.720/,"Mar 28, 2021"
✨HQ⚡ 1M Personal USA Data⭐,https://hackingfather.com//threads/hq-1m-personal-usa-data.708/,"Mar 28, 2021"
